﻿


EVENT   1
 PAGE   1
  281(1)
  250(bytes(0x04,0x08,0x6f,0x3a,0x0c,0x52,0x50,0x47,0x3a,0x3a,0x53,0x45,0x08,0x3a,0x0a,0x40,0x6e,0x61,0x6d,0x65,0x49,0x22,0x09,0x4d,0x6f,0x76,0x65,0x06,0x3a,0x06,0x45,0x54,0x3a,0x0b,0x40,0x70,0x69,0x74,0x63,0x68,0x69,0x69,0x3a,0x0c,0x40,0x76,0x6f,0x6c,0x75,0x6d,0x65,0x69,0x55))
  TeleportPlayer(0,45,23,7,0,0)
  0()



EVENT   2
 PAGE   1
  281(1)
  250(bytes(0x04,0x08,0x6f,0x3a,0x0c,0x52,0x50,0x47,0x3a,0x3a,0x53,0x45,0x08,0x3a,0x0a,0x40,0x6e,0x61,0x6d,0x65,0x49,0x22,0x09,0x4d,0x6f,0x76,0x65,0x06,0x3a,0x06,0x45,0x54,0x3a,0x0b,0x40,0x70,0x69,0x74,0x63,0x68,0x69,0x69,0x3a,0x0c,0x40,0x76,0x6f,0x6c,0x75,0x6d,0x65,0x69,0x55))
  TeleportPlayer(0,45,44,23,0,0)
  0()



EVENT   3
 PAGE   1
  0()



EVENT   4
 PAGE   1
  0()



EVENT   5
 PAGE   1
  281(1)
  250(bytes(0x04,0x08,0x6f,0x3a,0x0c,0x52,0x50,0x47,0x3a,0x3a,0x53,0x45,0x08,0x3a,0x0a,0x40,0x6e,0x61,0x6d,0x65,0x49,0x22,0x09,0x4d,0x6f,0x76,0x65,0x06,0x3a,0x06,0x45,0x54,0x3a,0x0b,0x40,0x70,0x69,0x74,0x63,0x68,0x69,0x69,0x3a,0x0c,0x40,0x76,0x6f,0x6c,0x75,0x6d,0x65,0x69,0x55))
  TeleportPlayer(0,45,6,39,0,0)
  0()



EVENT   6
 PAGE   1
  0()



EVENT   7
 PAGE   1
  0()



EVENT   8
 PAGE   1
  250(bytes(0x04,0x08,0x6f,0x3a,0x0c,0x52,0x50,0x47,0x3a,0x3a,0x53,0x45,0x08,0x3a,0x0a,0x40,0x6e,0x61,0x6d,0x65,0x49,0x22,0x09,0x4d,0x6f,0x76,0x65,0x06,0x3a,0x06,0x45,0x54,0x3a,0x0b,0x40,0x70,0x69,0x74,0x63,0x68,0x69,0x69,0x3a,0x0c,0x40,0x76,0x6f,0x6c,0x75,0x6d,0x65,0x69,0x55))
  TeleportPlayer(0,46,28,30,0,0)
  0()



EVENT   9
 PAGE   1
  250(bytes(0x04,0x08,0x6f,0x3a,0x0c,0x52,0x50,0x47,0x3a,0x3a,0x53,0x45,0x08,0x3a,0x0a,0x40,0x6e,0x61,0x6d,0x65,0x49,0x22,0x09,0x4d,0x6f,0x76,0x65,0x06,0x3a,0x06,0x45,0x54,0x3a,0x0b,0x40,0x70,0x69,0x74,0x63,0x68,0x69,0x69,0x3a,0x0c,0x40,0x76,0x6f,0x6c,0x75,0x6d,0x65,0x69,0x55))
  TeleportPlayer(0,46,29,30,0,0)
  0()



EVENT   10
 PAGE   1
  250(bytes(0x04,0x08,0x6f,0x3a,0x0c,0x52,0x50,0x47,0x3a,0x3a,0x53,0x45,0x08,0x3a,0x0a,0x40,0x6e,0x61,0x6d,0x65,0x49,0x22,0x09,0x4d,0x6f,0x76,0x65,0x06,0x3a,0x06,0x45,0x54,0x3a,0x0b,0x40,0x70,0x69,0x74,0x63,0x68,0x69,0x69,0x3a,0x0c,0x40,0x76,0x6f,0x6c,0x75,0x6d,0x65,0x69,0x55))
  TeleportPlayer(0,46,28,5,0,0)
  0()



EVENT   11
 PAGE   1
  250(bytes(0x04,0x08,0x6f,0x3a,0x0c,0x52,0x50,0x47,0x3a,0x3a,0x53,0x45,0x08,0x3a,0x0a,0x40,0x6e,0x61,0x6d,0x65,0x49,0x22,0x09,0x4d,0x6f,0x76,0x65,0x06,0x3a,0x06,0x45,0x54,0x3a,0x0b,0x40,0x70,0x69,0x74,0x63,0x68,0x69,0x69,0x3a,0x0c,0x40,0x76,0x6f,0x6c,0x75,0x6d,0x65,0x69,0x55))
  TeleportPlayer(0,46,29,5,0,0)
  0()



EVENT   12
 PAGE   1
  281(1)
  250(bytes(0x04,0x08,0x6f,0x3a,0x0c,0x52,0x50,0x47,0x3a,0x3a,0x53,0x45,0x08,0x3a,0x0a,0x40,0x6e,0x61,0x6d,0x65,0x49,0x22,0x09,0x4d,0x6f,0x76,0x65,0x06,0x3a,0x06,0x45,0x54,0x3a,0x0b,0x40,0x70,0x69,0x74,0x63,0x68,0x69,0x69,0x3a,0x0c,0x40,0x76,0x6f,0x6c,0x75,0x6d,0x65,0x69,0x55))
  TeleportPlayer(0,45,26,42,0,0)
  0()



EVENT   13
 PAGE   1
  281(1)
  250(bytes(0x04,0x08,0x6f,0x3a,0x0c,0x52,0x50,0x47,0x3a,0x3a,0x53,0x45,0x08,0x3a,0x0a,0x40,0x6e,0x61,0x6d,0x65,0x49,0x22,0x09,0x4d,0x6f,0x76,0x65,0x06,0x3a,0x06,0x45,0x54,0x3a,0x0b,0x40,0x70,0x69,0x74,0x63,0x68,0x69,0x69,0x3a,0x0c,0x40,0x76,0x6f,0x6c,0x75,0x6d,0x65,0x69,0x55))
  TeleportPlayer(0,45,35,45,0,0)
  0()



EVENT   14
 PAGE   1
  0()



EVENT   15
 PAGE   1
  0()



EVENT   16
 PAGE   1
  281(1)
  250(bytes(0x04,0x08,0x6f,0x3a,0x0c,0x52,0x50,0x47,0x3a,0x3a,0x53,0x45,0x08,0x3a,0x0a,0x40,0x6e,0x61,0x6d,0x65,0x49,0x22,0x09,0x4d,0x6f,0x76,0x65,0x06,0x3a,0x06,0x45,0x54,0x3a,0x0b,0x40,0x70,0x69,0x74,0x63,0x68,0x69,0x69,0x3a,0x0c,0x40,0x76,0x6f,0x6c,0x75,0x6d,0x65,0x69,0x55))
  TeleportPlayer(0,45,24,52,0,0)
  0()



EVENT   17
 PAGE   1
  0()



EVENT   18
 PAGE   1
  281(1)
  250(bytes(0x04,0x08,0x6f,0x3a,0x0c,0x52,0x50,0x47,0x3a,0x3a,0x53,0x45,0x08,0x3a,0x0a,0x40,0x6e,0x61,0x6d,0x65,0x49,0x22,0x09,0x4d,0x6f,0x76,0x65,0x06,0x3a,0x06,0x45,0x54,0x3a,0x0b,0x40,0x70,0x69,0x74,0x63,0x68,0x69,0x69,0x3a,0x0c,0x40,0x76,0x6f,0x6c,0x75,0x6d,0x65,0x69,0x55))
  TeleportPlayer(0,45,45,51,0,0)
  0()



EVENT   19
 PAGE   1
  ShowMessageFace("",0,0,2,1)
  ShowMessage("\\n<Worn-down Weapon Dealer>Oh, a customer?\nPlease, buy whatever you'd like.")
  Shop(1,23,0,0,false)
  605(1,248,0,0)
  605(1,880,0,0)
  605(2,25,0,0)
  605(2,170,0,0)
  0()



EVENT   20
 PAGE   1
  ShowMessageFace("",0,0,2,1)
  ShowMessage("\\n<Worn-down Shopkeeper>Aaah... That was the best...\nOh, a customer?")
  Shop(0,2,0,0,false)
  605(0,7,0,0)
  605(0,11,0,0)
  605(0,13,0,0)
  605(0,14,0,0)
  605(0,15,0,0)
  605(0,16,0,0)
  605(0,17,0,0)
  605(0,18,0,0)
  605(0,19,0,0)
  605(0,20,0,0)
  605(0,21,0,0)
  605(0,23,0,0)
  605(0,35,0,0)
  If(1,1005,0,18,0)
   If(4,66,0)
    If(0,2065,0)
     ShowMessageFace("vgirl_fc1",0,0,2,2)
     ShowMessage("\\n<Vanilla>Hello, I'm Vanilla the merchant.\nI'm looking to stock De-Love Potions in my store.")
     ShowMessageFace("",0,0,2,3)
     ShowMessage("\\n<Worn-down Shopkeeper>De-Love Potions are this village's specialty.\nI'll let you sell them under one condition.")
     ShowMessageFace("",0,0,2,4)
     ShowMessage("\\n<Worn-down Shopkeeper>...You also have to carry our village's other specialty: potatoes.\nOur warehouses can't hold any more of them...")
     ShowMessageFace("vgirl_fc1",0,0,2,5)
     ShowMessage("\\n<Vanilla>You have that many extra potatoes...?")
     ShowMessageFace("",0,0,2,6)
     ShowMessage("Negotiations continue...\nVanilla acts like a first-rate merchant in her dealings!")
     ShowMessageFace("",0,0,2,7)
     ShowMessage("\\n<Worn-down Shopkeeper>Okay, we've got a deal on De-Love Potions and potatoes!\nNever underestimate the perils of having excess inventory you can't sell, young lady.")
     ShowMessageFace("vgirl_fc1",0,0,2,8)
     ShowMessage("\\n<Vanilla>I'll bear that in mind!\nLooking forward to our continuing business!")
     249(bytes(0x04,0x08,0x6f,0x3a,0x0c,0x52,0x50,0x47,0x3a,0x3a,0x4d,0x45,0x08,0x3a,0x0a,0x40,0x6e,0x61,0x6d,0x65,0x49,0x22,0x0c,0x66,0x61,0x6e,0x66,0x61,0x6c,0x65,0x06,0x3a,0x06,0x45,0x54,0x3a,0x0b,0x40,0x70,0x69,0x74,0x63,0x68,0x69,0x69,0x3a,0x0c,0x40,0x76,0x6f,0x6c,0x75,0x6d,0x65,0x69,0x69))
     ShowMessageFace("",0,0,2,9)
     ShowMessage("Vanilla's shop can now sell De-Love Potions!")
     ChangeVariable(1005,1005,0,0,19)
     ChangeSwitch(2065,2065,1)
     Wait(60)
     EndEventProcessing()
     0()
    EndIf()
    0()
   EndIf()
   0()
  EndIf()
  0()



EVENT   21
 PAGE   1
  ShowMessageFace("",0,0,2,1)
  ShowMessage("\\n<Succubus Shopkeeper>Don't mind the mess.\nSo what'll it be?")
  Shop(0,428,0,0,false)
  605(0,429,0,0)
  605(0,430,0,0)
  605(0,431,0,0)
  0()



EVENT   23
 PAGE   1
  0()



EVENT   24
 PAGE   1
  0()



EVENT   25
 PAGE   1
  0()



EVENT   26
 PAGE   1
  0()



EVENT   27
 PAGE   1
  0()



EVENT   28
 PAGE   1
  108("明かり設定3300300")
  0()



EVENT   29
 PAGE   1
  250(bytes(0x04,0x08,0x6f,0x3a,0x0c,0x52,0x50,0x47,0x3a,0x3a,0x53,0x45,0x08,0x3a,0x0a,0x40,0x6e,0x61,0x6d,0x65,0x49,0x22,0x09,0x4d,0x6f,0x76,0x65,0x06,0x3a,0x06,0x45,0x54,0x3a,0x0b,0x40,0x70,0x69,0x74,0x63,0x68,0x69,0x69,0x3a,0x0c,0x40,0x76,0x6f,0x6c,0x75,0x6d,0x65,0x69,0x55))
  TeleportPlayer(0,46,20,92,0,0)
  0()



EVENT   30
 PAGE   1
  250(bytes(0x04,0x08,0x6f,0x3a,0x0c,0x52,0x50,0x47,0x3a,0x3a,0x53,0x45,0x08,0x3a,0x0a,0x40,0x6e,0x61,0x6d,0x65,0x49,0x22,0x09,0x4d,0x6f,0x76,0x65,0x06,0x3a,0x06,0x45,0x54,0x3a,0x0b,0x40,0x70,0x69,0x74,0x63,0x68,0x69,0x69,0x3a,0x0c,0x40,0x76,0x6f,0x6c,0x75,0x6d,0x65,0x69,0x55))
  TeleportPlayer(0,46,66,62,8,0)
  0()



EVENT   31
 PAGE   1
  108("明かり設定1243070015")
  0()



EVENT   32
 PAGE   1
  108("明かり設定3300300")
  0()



EVENT   33
 PAGE   1
  108("明かり設定3300200")
  0()



EVENT   34
 PAGE   1
  250(bytes(0x04,0x08,0x6f,0x3a,0x0c,0x52,0x50,0x47,0x3a,0x3a,0x53,0x45,0x08,0x3a,0x0a,0x40,0x6e,0x61,0x6d,0x65,0x49,0x22,0x09,0x4d,0x6f,0x76,0x65,0x06,0x3a,0x06,0x45,0x54,0x3a,0x0b,0x40,0x70,0x69,0x74,0x63,0x68,0x69,0x69,0x3a,0x0c,0x40,0x76,0x6f,0x6c,0x75,0x6d,0x65,0x69,0x55))
  TeleportPlayer(0,46,20,92,0,0)
  0()



EVENT   35
 PAGE   1
  250(bytes(0x04,0x08,0x6f,0x3a,0x0c,0x52,0x50,0x47,0x3a,0x3a,0x53,0x45,0x08,0x3a,0x0a,0x40,0x6e,0x61,0x6d,0x65,0x49,0x22,0x09,0x4d,0x6f,0x76,0x65,0x06,0x3a,0x06,0x45,0x54,0x3a,0x0b,0x40,0x70,0x69,0x74,0x63,0x68,0x69,0x69,0x3a,0x0c,0x40,0x76,0x6f,0x6c,0x75,0x6d,0x65,0x69,0x55))
  TeleportPlayer(0,46,20,92,0,0)
  0()



EVENT   36
 PAGE   1
  250(bytes(0x04,0x08,0x6f,0x3a,0x0c,0x52,0x50,0x47,0x3a,0x3a,0x53,0x45,0x08,0x3a,0x0a,0x40,0x6e,0x61,0x6d,0x65,0x49,0x22,0x09,0x4d,0x6f,0x76,0x65,0x06,0x3a,0x06,0x45,0x54,0x3a,0x0b,0x40,0x70,0x69,0x74,0x63,0x68,0x69,0x69,0x3a,0x0c,0x40,0x76,0x6f,0x6c,0x75,0x6d,0x65,0x69,0x55))
  TeleportPlayer(0,46,66,62,8,0)
  0()



EVENT   37
 PAGE   1
  0()



EVENT   38
 PAGE   1
  0()



EVENT   39
 PAGE   1
  0()



EVENT   40
 PAGE   1
  0()



EVENT   41
 PAGE   1
  0()



EVENT   42
 PAGE   1
  250(bytes(0x04,0x08,0x6f,0x3a,0x0c,0x52,0x50,0x47,0x3a,0x3a,0x53,0x45,0x08,0x3a,0x0a,0x40,0x6e,0x61,0x6d,0x65,0x49,0x22,0x09,0x4d,0x6f,0x76,0x65,0x06,0x3a,0x06,0x45,0x54,0x3a,0x0b,0x40,0x70,0x69,0x74,0x63,0x68,0x69,0x69,0x3a,0x0c,0x40,0x76,0x6f,0x6c,0x75,0x6d,0x65,0x69,0x55))
  TeleportPlayer(0,46,66,97,8,0)
  0()



EVENT   43
 PAGE   1
  250(bytes(0x04,0x08,0x6f,0x3a,0x0c,0x52,0x50,0x47,0x3a,0x3a,0x53,0x45,0x08,0x3a,0x0a,0x40,0x6e,0x61,0x6d,0x65,0x49,0x22,0x09,0x4d,0x6f,0x76,0x65,0x06,0x3a,0x06,0x45,0x54,0x3a,0x0b,0x40,0x70,0x69,0x74,0x63,0x68,0x69,0x69,0x3a,0x0c,0x40,0x76,0x6f,0x6c,0x75,0x6d,0x65,0x69,0x55))
  TeleportPlayer(0,46,66,97,8,0)
  0()



EVENT   44
 PAGE   1
  250(bytes(0x04,0x08,0x6f,0x3a,0x0c,0x52,0x50,0x47,0x3a,0x3a,0x53,0x45,0x08,0x3a,0x0a,0x40,0x6e,0x61,0x6d,0x65,0x49,0x22,0x09,0x4d,0x6f,0x76,0x65,0x06,0x3a,0x06,0x45,0x54,0x3a,0x0b,0x40,0x70,0x69,0x74,0x63,0x68,0x69,0x69,0x3a,0x0c,0x40,0x76,0x6f,0x6c,0x75,0x6d,0x65,0x69,0x55))
  TeleportPlayer(0,46,66,97,8,0)
  0()



EVENT   45
 PAGE   1
  250(bytes(0x04,0x08,0x6f,0x3a,0x0c,0x52,0x50,0x47,0x3a,0x3a,0x53,0x45,0x08,0x3a,0x0a,0x40,0x6e,0x61,0x6d,0x65,0x49,0x22,0x09,0x4d,0x6f,0x76,0x65,0x06,0x3a,0x06,0x45,0x54,0x3a,0x0b,0x40,0x70,0x69,0x74,0x63,0x68,0x69,0x69,0x3a,0x0c,0x40,0x76,0x6f,0x6c,0x75,0x6d,0x65,0x69,0x55))
  TeleportPlayer(0,46,66,67,2,0)
  0()



EVENT   46
 PAGE   1
  0()



EVENT   47
 PAGE   1
  0()



EVENT   48
 PAGE   1
  0()



EVENT   49
 PAGE   1
  0()



EVENT   50
 PAGE   1
  0()



EVENT   51
 PAGE   1
  0()



EVENT   52
 PAGE   1
  0()



EVENT   53
 PAGE   1
  0()



EVENT   54
 PAGE   1
  0()



EVENT   55
 PAGE   1
  0()



EVENT   56
 PAGE   1
  0()



EVENT   57
 PAGE   1
  0()



EVENT   58
 PAGE   1
  0()



EVENT   59
 PAGE   1
  281(1)
  250(bytes(0x04,0x08,0x6f,0x3a,0x0c,0x52,0x50,0x47,0x3a,0x3a,0x53,0x45,0x08,0x3a,0x0a,0x40,0x6e,0x61,0x6d,0x65,0x49,0x22,0x09,0x4d,0x6f,0x76,0x65,0x06,0x3a,0x06,0x45,0x54,0x3a,0x0b,0x40,0x70,0x69,0x74,0x63,0x68,0x69,0x69,0x3a,0x0c,0x40,0x76,0x6f,0x6c,0x75,0x6d,0x65,0x69,0x55))
  TeleportPlayer(0,45,39,11,0,0)
  0()



EVENT   60
 PAGE   1
  281(1)
  250(bytes(0x04,0x08,0x6f,0x3a,0x0c,0x52,0x50,0x47,0x3a,0x3a,0x53,0x45,0x08,0x3a,0x0a,0x40,0x6e,0x61,0x6d,0x65,0x49,0x22,0x09,0x4d,0x6f,0x76,0x65,0x06,0x3a,0x06,0x45,0x54,0x3a,0x0b,0x40,0x70,0x69,0x74,0x63,0x68,0x69,0x69,0x3a,0x0c,0x40,0x76,0x6f,0x6c,0x75,0x6d,0x65,0x69,0x55))
  TeleportPlayer(0,45,39,11,0,0)
  0()



EVENT   61
 PAGE   1
  281(1)
  250(bytes(0x04,0x08,0x6f,0x3a,0x0c,0x52,0x50,0x47,0x3a,0x3a,0x53,0x45,0x08,0x3a,0x0a,0x40,0x6e,0x61,0x6d,0x65,0x49,0x22,0x09,0x4d,0x6f,0x76,0x65,0x06,0x3a,0x06,0x45,0x54,0x3a,0x0b,0x40,0x70,0x69,0x74,0x63,0x68,0x69,0x69,0x3a,0x0c,0x40,0x76,0x6f,0x6c,0x75,0x6d,0x65,0x69,0x55))
  TeleportPlayer(0,45,39,11,0,0)
  0()



EVENT   62
 PAGE   1
  281(1)
  250(bytes(0x04,0x08,0x6f,0x3a,0x0c,0x52,0x50,0x47,0x3a,0x3a,0x53,0x45,0x08,0x3a,0x0a,0x40,0x6e,0x61,0x6d,0x65,0x49,0x22,0x09,0x4d,0x6f,0x76,0x65,0x06,0x3a,0x06,0x45,0x54,0x3a,0x0b,0x40,0x70,0x69,0x74,0x63,0x68,0x69,0x69,0x3a,0x0c,0x40,0x76,0x6f,0x6c,0x75,0x6d,0x65,0x69,0x55))
  TeleportPlayer(0,45,39,11,0,0)
  0()



EVENT   63
 PAGE   1
  250(bytes(0x04,0x08,0x6f,0x3a,0x0c,0x52,0x50,0x47,0x3a,0x3a,0x53,0x45,0x08,0x3a,0x0a,0x40,0x6e,0x61,0x6d,0x65,0x49,0x22,0x09,0x4d,0x6f,0x76,0x65,0x06,0x3a,0x06,0x45,0x54,0x3a,0x0b,0x40,0x70,0x69,0x74,0x63,0x68,0x69,0x69,0x3a,0x0c,0x40,0x76,0x6f,0x6c,0x75,0x6d,0x65,0x69,0x55))
  TeleportPlayer(0,46,66,67,2,0)
  0()



EVENT   64
 PAGE   1
  250(bytes(0x04,0x08,0x6f,0x3a,0x0c,0x52,0x50,0x47,0x3a,0x3a,0x53,0x45,0x08,0x3a,0x0a,0x40,0x6e,0x61,0x6d,0x65,0x49,0x22,0x09,0x4d,0x6f,0x76,0x65,0x06,0x3a,0x06,0x45,0x54,0x3a,0x0b,0x40,0x70,0x69,0x74,0x63,0x68,0x69,0x69,0x3a,0x0c,0x40,0x76,0x6f,0x6c,0x75,0x6d,0x65,0x69,0x55))
  TeleportPlayer(0,46,66,67,2,0)
  0()



EVENT   65
 PAGE   1
  If(1,831,0,2,1)
   If(0,1580,1)
    ShowMessageFace("mob_ozyou_fc1",0,0,2,1)
    ShowMessage("\\n<Alleria>Would you be willing to take me along?\nI'd like to broaden my horizons.")
    ShowChoices(strings("Let her join","Decline for now"),0)
    IfPlayerPicksChoice(0,null)
     ShowMessageFace("mob_ozyou_fc1",0,0,2,2)
     ShowMessage("\\n<Alleria>Ufufu, this is gonna be fun...")
     PictureClear(5)
     205(0,bytes(0x04,0x08,0x6f,0x3a,0x13,0x52,0x50,0x47,0x3a,0x3a,0x4d,0x6f,0x76,0x65,0x52,0x6f,0x75,0x74,0x65,0x09,0x3a,0x0c,0x40,0x72,0x65,0x70,0x65,0x61,0x74,0x46,0x3a,0x0f,0x40,0x73,0x6b,0x69,0x70,0x70,0x61,0x62,0x6c,0x65,0x46,0x3a,0x0a,0x40,0x77,0x61,0x69,0x74,0x54,0x3a,0x0a,0x40,0x6c,0x69,0x73,0x74,0x5b,0x09,0x6f,0x3a,0x15,0x52,0x50,0x47,0x3a,0x3a,0x4d,0x6f,0x76,0x65,0x43,0x6f,0x6d,0x6d,0x61,0x6e,0x64,0x07,0x3a,0x0a,0x40,0x63,0x6f,0x64,0x65,0x69,0x2a,0x3a,0x10,0x40,0x70,0x61,0x72,0x61,0x6d,0x65,0x74,0x65,0x72,0x73,0x5b,0x00,0x6f,0x3b,0x0a,0x07,0x3b,0x0b,0x69,0x0f,0x3b,0x0c,0x5b,0x00,0x6f,0x3b,0x0a,0x07,0x3b,0x0b,0x69,0x2c,0x3b,0x0c,0x5b,0x00,0x6f,0x3b,0x0a,0x07,0x3b,0x0b,0x69,0x00,0x3b,0x0c,0x5b,0x00))
     355("add_actor_ex(580)")
     249(bytes(0x04,0x08,0x6f,0x3a,0x0c,0x52,0x50,0x47,0x3a,0x3a,0x4d,0x45,0x08,0x3a,0x0a,0x40,0x6e,0x61,0x6d,0x65,0x49,0x22,0x0c,0x66,0x61,0x6e,0x66,0x61,0x6c,0x65,0x06,0x3a,0x06,0x45,0x54,0x3a,0x0b,0x40,0x70,0x69,0x74,0x63,0x68,0x69,0x69,0x3a,0x0c,0x40,0x76,0x6f,0x6c,0x75,0x6d,0x65,0x69,0x69))
     ShowMessageFace("",0,0,2,3)
     ShowMessage("Alleria has joined the party!")
     Wait(60)
     EndEventProcessing()
     0()
    IfPlayerPicksChoice(1,null)
     ShowMessageFace("mob_ozyou_fc1",0,0,2,4)
     ShowMessage("\\n<Alleria>That's too bad...")
     0()
    404()
    0()
   EndIf()
   0()
  EndIf()
  RunCommonEvent(7301)
  0()
 PAGE   2
  // condition: party contains actor #580
  0()



EVENT   66
 PAGE   1
  // condition: switch 2210 is ON
  PictureDisplay(5,"80_succubus_st01",0,0,0,0,100,100,0,0)
  PictureMove(5,null,0,0,0,0,100,100,255,0,30,true)
  ShowMessageFace("succubus_fc1",0,0,2,1)
  ShowMessage("\\n<Succubus>Oh, you're looking spry...\nI still haven't fully recovered from the injuries you guys caused me.")
  ShowMessageFace("succubus_fc1",0,0,2,2)
  ShowMessage("\\n<Succubus>I suppose all's well that ends well.\nThe other villagers were largely unharmed. I'm the one who took the worst of it.")
  ShowMessageFace("succubus_fc1",1,0,2,3)
  ShowMessage("\\n<Succubus>At least that girl was saved...\nI don't blame her or any of you for what happened.")
  ShowChoices(strings("Ask her to join the party","Leave"),2)
  IfPlayerPicksChoice(0,null)
   ShowMessageFace("succubus_fc1",0,0,2,4)
   ShowMessage("\\n<Succubus>I can't even get out of bed yet.")
   If(4,163,0)
    ShowMessageFace("lily_fc1",5,0,2,5)
    ShowMessage("\\n<Lily>I think we owe her an apology...")
    0()
   EndIf()
   PictureClear(5)
   EndEventProcessing()
   0()
  IfPlayerPicksChoice(1,null)
   PictureClear(5)
   EndEventProcessing()
   0()
  404()
  0()
 PAGE   2
  // condition: switch 2211 is ON
  PictureDisplay(5,"80_succubus_st03",0,0,0,0,100,100,0,0)
  PictureMove(5,null,0,0,0,0,100,100,255,0,30,true)
  ShowMessageFace("succubus_fc1",3,0,2,1)
  ShowMessage("\\n<Succubus>...Why are you here?\nI still haven't fully recovered from the injuries you guys caused me.")
  ShowMessageFace("succubus_fc1",3,0,2,2)
  ShowMessage("\\n<Succubus>Natasha left after that incident as well.\nI doubt we'll ever see her again.")
  ShowMessageFace("succubus_fc1",3,0,2,3)
  ShowMessage("\\n<Succubus>Speaking of which... I never want to see any of you again either.")
  If(0,6,0)
   ShowMessageFace("sonia_fc4",0,0,2,4)
   ShowMessage("\\n<Sonya>We royally fucked up, didn't we...\nNothing we say can change that.")
   0()
  EndIf()
  PictureClear(5)
  0()



EVENT   67
 PAGE   1
  // condition: switch 2212 is ON
  PictureDisplay(5,"80_succubus_st01",0,0,0,0,100,100,255,0)
  ShowMessageFace("succubus_fc1",0,0,2,1)
  ShowMessage("\\n<Succubus>Oh, it's you guys.\nI'm in your debt. Words can't express my thanks.")
  ShowMessageFace("succubus_fc1",0,0,2,2)
  ShowMessage("\\n<Succubus>Nothing major has happened since you were here last. Natasha has settled in as an upstanding member of our village.")
  ShowMessageFace("succubus_fc1",0,0,2,3)
  ShowMessage("\\n<Succubus>I do still need to reward you somehow. Is there something I can do to help?")
  ShowChoices(strings("Ask her to join the party","Not right now"),2)
  IfPlayerPicksChoice(0,null)
   ShowMessageFace("succubus_fc1",0,0,2,4)
   ShowMessage("\\n<Succubus>You require my assistance?\nIn that case, allow me to accompany you.")
   PictureClear(5)
   205(0,bytes(0x04,0x08,0x6f,0x3a,0x13,0x52,0x50,0x47,0x3a,0x3a,0x4d,0x6f,0x76,0x65,0x52,0x6f,0x75,0x74,0x65,0x09,0x3a,0x0c,0x40,0x72,0x65,0x70,0x65,0x61,0x74,0x46,0x3a,0x0f,0x40,0x73,0x6b,0x69,0x70,0x70,0x61,0x62,0x6c,0x65,0x46,0x3a,0x0a,0x40,0x77,0x61,0x69,0x74,0x54,0x3a,0x0a,0x40,0x6c,0x69,0x73,0x74,0x5b,0x09,0x6f,0x3a,0x15,0x52,0x50,0x47,0x3a,0x3a,0x4d,0x6f,0x76,0x65,0x43,0x6f,0x6d,0x6d,0x61,0x6e,0x64,0x07,0x3a,0x0a,0x40,0x63,0x6f,0x64,0x65,0x69,0x2a,0x3a,0x10,0x40,0x70,0x61,0x72,0x61,0x6d,0x65,0x74,0x65,0x72,0x73,0x5b,0x00,0x6f,0x3b,0x0a,0x07,0x3b,0x0b,0x69,0x0f,0x3b,0x0c,0x5b,0x00,0x6f,0x3b,0x0a,0x07,0x3b,0x0b,0x69,0x2c,0x3b,0x0c,0x5b,0x00,0x6f,0x3b,0x0a,0x07,0x3b,0x0b,0x69,0x00,0x3b,0x0c,0x5b,0x00))
   355("add_actor_ex(287)")
   249(bytes(0x04,0x08,0x6f,0x3a,0x0c,0x52,0x50,0x47,0x3a,0x3a,0x4d,0x45,0x08,0x3a,0x0a,0x40,0x6e,0x61,0x6d,0x65,0x49,0x22,0x0c,0x66,0x61,0x6e,0x66,0x61,0x6c,0x65,0x06,0x3a,0x06,0x45,0x54,0x3a,0x0b,0x40,0x70,0x69,0x74,0x63,0x68,0x69,0x69,0x3a,0x0c,0x40,0x76,0x6f,0x6c,0x75,0x6d,0x65,0x69,0x69))
   ShowMessageFace("",0,0,2,5)
   ShowMessage("Succubus has joined the party!")
   ChangeSelfSwitch("A",0)
   Wait(60)
   If(0,6,0)
    ShowMessageFace("sonia_fc1",0,0,2,6)
    ShowMessage("\\n<Sonya>By the way, what's with your name, mayor?")
    0()
   Else()
    ShowMessageFace("ruka_fc1",0,0,2,7)
    ShowMessage("\\n<Luka>By the way, what's with your name, mayor?")
    0()
   EndIf()
   ShowMessageFace("succubus_fc1",1,0,2,8)
   ShowMessage("\\n<Succubus>My name? It's Succubus.")
   ShowMessageFace("ruka_fc1",0,0,2,9)
   ShowMessage("\\n<Luka>So you're a succubus... named Succubus?")
   If(0,4,0)
    ShowMessageFace("alice_fc5",0,0,2,10)
    ShowMessage("\\n<Alice>It's a custom for powerful monsters to take on their race's name, especially for the elite and members of historical families.")
    0()
   EndIf()
   If(0,5,0)
    ShowMessageFace("iriasu_fc4",0,0,2,11)
    ShowMessage("\\n<Ilias>It's a custom for powerful monsters to appropriate their race's name, especially for the elite and those with long family histories.")
    0()
   EndIf()
   ShowMessageFace("succubus_fc1",0,0,2,12)
   ShowMessage("\\n<Succubus>It's pretty much a family thing for me...\nThe head of my family has been named Succubus for generations.")
   If(0,6,0)
    ShowMessageFace("sonia_fc2",2,0,2,13)
    ShowMessage("\\n<Sonya>I'm trying to imagine a human named Human...\nNope, that's too weird.")
    0()
   Else()
    ShowMessageFace("ruka_fc1",0,0,2,14)
    ShowMessage("\\n<Luka>I'm trying to imagine a human named Human...\nNo, that's just weird.")
    0()
   EndIf()
   EndEventProcessing()
   0()
  IfPlayerPicksChoice(1,null)
   PictureClear(5)
   EndEventProcessing()
   0()
  404()
  0()
 PAGE   2
  // condition: switch 2213 is ON
  PictureDisplay(5,"80_succubus_st01",0,0,0,0,100,100,255,0)
  ShowMessageFace("succubus_fc1",0,0,2,1)
  ShowMessage("\\n<Succubus>Oh, it's you guys.\nI'm in your debt. Words can't express my thanks.")
  ShowMessageFace("succubus_fc1",3,0,2,2)
  ShowMessage("\\n<Succubus>Things have been hectic since the incident.\nNatasha has been a handful, especially.")
  ShowMessageFace("succubus_fc1",0,0,2,3)
  ShowMessage("\\n<Succubus>Oh well, she's one of the villagers now. Don't worry, we won't abandon her.")
  ShowChoices(strings("Ask her to join the party","Leave"),2)
  IfPlayerPicksChoice(0,null)
   ShowMessageFace("succubus_fc1",0,0,2,4)
   ShowMessage("\\n<Succubus>I apologize, but I can't.\nNatasha is so unstable that I can't be away from her.")
   PictureClear(5)
   EndEventProcessing()
   0()
  IfPlayerPicksChoice(1,null)
   PictureClear(5)
   EndEventProcessing()
   0()
  404()
  0()
 PAGE   3
  // condition: self-switch A is ON
  0()



EVENT   68
 PAGE   1
  ShowMessageFace("",0,0,2,1)
  ShowMessage("\\n<Maid>Welcome. The mayor will meet with you if you'd like.")
  0()



EVENT   69
 PAGE   1
  ShowMessageFace("",0,0,2,1)
  ShowMessage("\\n<Maid>What kind of potato dish shall I cook today...")
  0()



EVENT   70
 PAGE   1
  ShowMessageFace("",0,0,2,1)
  ShowMessage("\\n<Maid>The mayor is an exceptionally wonderful person.\nHer only fault is regarding potatoes...")
  355("actor_label_jump")
  EndEventProcessing()
  DefineLabel("287")
  ShowMessageFace("succubus_fc1",0,0,2,2)
  ShowMessage("\\n<Succubus>What's wrong with potatoes?")
  ShowMessageFace("",0,0,2,3)
  ShowMessage("\\n<Maid>N-Nothing! Nothing at all...")
  EndEventProcessing()
  0()



EVENT   71
 PAGE   1
  ShowMessageFace("",0,0,2,1)
  ShowMessage("\\n<Maid>Succubus Village was struck by a severe famine in the past, and potatoes became a valuable source of nutrition for us.")
  ShowMessageFace("",0,0,2,2)
  ShowMessage("\\n<Maid>Taking a lesson from that, the mayor recommended keeping an emergency potato reserve. She grew them, cooked them, and personally distributed them around the village...")
  ShowMessageFace("",0,0,2,3)
  ShowMessage("\\n<Maid>As a result, many of the villagers grew to hate potatoes. There are people who can't even stand looking at a potato now...")
  355("actor_label_jump")
  EndEventProcessing()
  DefineLabel("287")
  ShowMessageFace("succubus_fc1",3,0,2,4)
  ShowMessage("\\n<Succubus>Their loss...")
  EndEventProcessing()
  0()



EVENT   72
 PAGE   1
  // condition: switch 2210 is ON
  ShowMessageFace("",0,0,2,1)
  ShowMessage("\\n<Maid>The mayor is recovering from her wounds.\nWho would do such a terrible thing to her?")
  0()
 PAGE   2
  // condition: switch 2211 is ON
  ShowMessageFace("",0,0,2,1)
  ShowMessage("\\n<Maid>The mayor is recovering from her wounds.\nWho would do such a terrible thing to her?")
  0()



EVENT   73
 PAGE   1
  // condition: switch 2212 is ON
  PictureDisplay(5,"80_d_succubus_st01b",0,0,0,0,100,100,0,0)
  PictureMove(5,null,0,0,0,0,100,100,255,0,30,true)
  ShowMessageFace("d_succubus_fc1",0,0,2,1)
  ShowMessage("\\n<Natasha>I caused quite a lot of grief here...\nSince then, I've been looking after this mansion.")
  ShowMessageFace("d_succubus_fc1",0,0,2,2)
  ShowMessage("\\n<Natasha>I'm grateful to everyone in the village for their warm reception. You don't have to worry about me.")
  355("actor_label_jump")
  PictureClear(5)
  EndEventProcessing()
  DefineLabel("167")
  ShowMessageFace("lusia_fc1",0,0,2,3)
  ShowMessage("\\n<Lucia>It appears that you're back on your feet...")
  PictureClear(5)
  EndEventProcessing()
  0()
 PAGE   2
  // condition: switch 2213 is ON
  PictureDisplay(5,"80_d_succubus_st03b",0,0,0,0,100,100,0,0)
  PictureMove(5,null,0,0,0,0,100,100,255,0,30,true)
  ShowMessageFace("d_succubus_fc1",2,0,2,1)
  ShowMessage("\\n<Natasha>One day I'm definitely...\nOne day...")
  355("actor_label_jump")
  PictureClear(5)
  EndEventProcessing()
  DefineLabel("167")
  ShowMessageFace("lusia_fc1",2,0,2,2)
  ShowMessage("\\n<Lucia>Some wounds take a long time to heal...")
  PictureClear(5)
  EndEventProcessing()
  0()



EVENT   74
 PAGE   1
  ShowMessageFace("",0,0,2,1)
  ShowMessage("\\n<Maid>Alleria is the daughter of a distant relative of the mayor. She's completely human though, without any trace of succubus in her.")
  ShowMessageFace("",0,0,2,2)
  ShowMessage("\\n<Maid>That said, she knows magic and is a great battle fucker. She's honestly more skilled than the average succubus.")
  0()



EVENT   75
 PAGE   1
  ShowMessageFace("",0,0,2,1)
  ShowMessage("\\n<Maid>This is Witch's room, but she's away at the moment.")
  ShowMessageFace("",0,0,2,2)
  ShowMessage("\\n<Maid>She's participating in some magic ceremony near Goddard, and I have no idea when she will return.")
  355("actor_label_jump")
  EndEventProcessing()
  DefineLabel("286")
  ShowMessageFace("witchs_fc1",0,0,2,3)
  ShowMessage("\\n<Witch>The magical girl selection ceremony is over, but I'm on an even longer adventure now...\nIt'll be a while before I'm home for good.")
  ShowMessageFace("",0,0,2,4)
  ShowMessage("\\n<Maid>Oh, is that so...\nI'll patiently await your return.")
  EndEventProcessing()
  0()



EVENT   76
 PAGE   1
  ShowMessageFace("",0,0,2,1)
  ShowMessage("\\n<Maid>This is the ritual room.\nIn the past, there were apparently plans to summon some legendary succubi here.")
  ShowMessageFace("",0,0,2,2)
  ShowMessage("\\n<Maid>However, after the Great Disaster, human society's attitudes towards monsters softened, and the village didn't require a savior anymore.")
  355("actor_label_jump")
  EndEventProcessing()
  DefineLabel("287")
  ShowMessageFace("succubus_fc1",3,0,2,3)
  ShowMessage("\\n<Succubus>Yeah, but now human-monster relations are headed in the wrong direction. I hope we can bring peace back to society soon.")
  EndEventProcessing()
  0()



EVENT   77
 PAGE   1
  ShowMessageFace("",0,0,2,1)
  ShowMessage("\\n<Worn-down Blacksmith>oooh...")
  0()



EVENT   78
 PAGE   1
  ShowMessageFace("",0,0,2,1)
  ShowMessage("\\n<Accessory Dealer>Ufufu, I deal in accessories related to pleasure status abnormalities. Have a look... ♪")
  Shop(2,1470,0,0,false)
  605(2,1473,0,0)
  605(2,1476,0,0)
  605(2,1479,0,0)
  605(2,1482,0,0)
  605(2,1580,0,0)
  605(2,1582,0,0)
  605(2,1584,0,0)
  605(2,1586,0,0)
  605(2,1588,0,0)
  0()



EVENT   79
 PAGE   1
  PictureDisplay(5,"80_renccubus_st02",0,0,0,0,100,100,0,0)
  PictureMove(5,null,0,0,0,0,100,100,255,0,30,true)
  ShowMessageFace("renccubus_fc1",2,0,2,1)
  ShowMessage("\\n<Lencubus>I'm embarrassed you had to see me like that the other day, but I'm completely in control of myself now.")
  If(0,6,0)
   ShowMessageFace("sonia_fc3",2,0,2,2)
   ShowMessage("\\n<Sonya>You say that, but haven't you just piled up all your half-eaten food in a corner of the room!?")
   0()
  EndIf()
  ShowMessageFace("renccubus_fc1",2,0,2,3)
  ShowMessage("\\n<Lencubus>I was thinking about experiencing more of the world if I had a chance. If you don't mind, can I come with you?")
  If(4,62,0)
   ShowMessageFace("gob_fc1",3,0,2,4)
   ShowMessage("\\n<Gob>Is this really a good idea...?")
   0()
  EndIf()
  ShowChoices(strings("Invite Lencubus to the party","Turn her down"),2)
  IfPlayerPicksChoice(0,null)
   ShowMessageFace("renccubus_fc1",2,0,2,5)
   ShowMessage("\\n<Lencubus>Thank you so much!\nI'm all ready to go!")
   PictureClear(5)
   205(0,bytes(0x04,0x08,0x6f,0x3a,0x13,0x52,0x50,0x47,0x3a,0x3a,0x4d,0x6f,0x76,0x65,0x52,0x6f,0x75,0x74,0x65,0x09,0x3a,0x0c,0x40,0x72,0x65,0x70,0x65,0x61,0x74,0x46,0x3a,0x0f,0x40,0x73,0x6b,0x69,0x70,0x70,0x61,0x62,0x6c,0x65,0x46,0x3a,0x0a,0x40,0x77,0x61,0x69,0x74,0x54,0x3a,0x0a,0x40,0x6c,0x69,0x73,0x74,0x5b,0x09,0x6f,0x3a,0x15,0x52,0x50,0x47,0x3a,0x3a,0x4d,0x6f,0x76,0x65,0x43,0x6f,0x6d,0x6d,0x61,0x6e,0x64,0x07,0x3a,0x0a,0x40,0x63,0x6f,0x64,0x65,0x69,0x2a,0x3a,0x10,0x40,0x70,0x61,0x72,0x61,0x6d,0x65,0x74,0x65,0x72,0x73,0x5b,0x00,0x6f,0x3b,0x0a,0x07,0x3b,0x0b,0x69,0x0f,0x3b,0x0c,0x5b,0x00,0x6f,0x3b,0x0a,0x07,0x3b,0x0b,0x69,0x2c,0x3b,0x0c,0x5b,0x00,0x6f,0x3b,0x0a,0x07,0x3b,0x0b,0x69,0x00,0x3b,0x0c,0x5b,0x00))
   355("add_actor_ex(285)")
   249(bytes(0x04,0x08,0x6f,0x3a,0x0c,0x52,0x50,0x47,0x3a,0x3a,0x4d,0x45,0x08,0x3a,0x0a,0x40,0x6e,0x61,0x6d,0x65,0x49,0x22,0x0c,0x66,0x61,0x6e,0x66,0x61,0x6c,0x65,0x06,0x3a,0x06,0x45,0x54,0x3a,0x0b,0x40,0x70,0x69,0x74,0x63,0x68,0x69,0x69,0x3a,0x0c,0x40,0x76,0x6f,0x6c,0x75,0x6d,0x65,0x69,0x69))
   ShowMessageFace("",0,0,2,6)
   ShowMessage("Nina has joined the party!")
   ChangeSelfSwitch("A",0)
   Wait(60)
   If(0,1284,0)
    ShowMessageFace("minccubus_fc1",2,0,2,7)
    ShowMessage("\\n<Serra>Yay, I get to adventure with my big sister! ♪")
    ShowMessageFace("renccubus_fc1",1,0,2,8)
    ShowMessage("\\n<Nina>Come on, don't act like such a tomboy.")
    0()
   EndIf()
   0()
  IfPlayerPicksChoice(1,null)
   PictureClear(5)
   EndEventProcessing()
   0()
  404()
  0()
 PAGE   2
  // condition: self-switch A is ON
  0()



EVENT   80
 PAGE   1
  ShowMessageFace("",0,0,2,1)
  ShowMessage("\\n<Thug>Hauuu...")
  0()



EVENT   81
 PAGE   1
  ShowMessageFace("",0,0,2,1)
  ShowMessage("\\n<Youth>S-Sucked dry...")
  0()



EVENT   82
 PAGE   1
  ShowMessageFace("",0,0,2,1)
  ShowMessage("\\n<Young Boy>No more...")
  0()



EVENT   83
 PAGE   1
  ShowMessageFace("",0,0,2,1)
  ShowMessage("\\n<Man>All... sucked out...")
  0()



EVENT   84
 PAGE   1
  ShowMessageFace("",0,0,2,1)
  ShowMessage("\\n<Old Man>Faaa...")
  0()



EVENT   85
 PAGE   1
  ShowMessageFace("",0,0,2,1)
  ShowMessage("\\n<Youth>Aauuu...")
  0()



EVENT   86
 PAGE   1
  ShowMessageFace("",0,0,2,1)
  ShowMessage("\\n<Succubus Innkeeper>Our inn is famous for giving you sexy dreams...\nWould you like to stay the night for 50G?\\$")
  ShowChoices(strings("Yes","No"),2)
  IfPlayerPicksChoice(0,null)
   If(7,50,0)
    If(0,6,0)
     ShowMessageFace("sonia_fc1",5,0,2,2)
     ShowMessage("\\n<Sonya>We will also be declining any extra 'services.'")
     0()
    EndIf()
    125(1,0,50)
    221()
    249(bytes(0x04,0x08,0x6f,0x3a,0x0c,0x52,0x50,0x47,0x3a,0x3a,0x4d,0x45,0x08,0x3a,0x0a,0x40,0x6e,0x61,0x6d,0x65,0x49,0x22,0x08,0x49,0x6e,0x6e,0x06,0x3a,0x06,0x45,0x54,0x3a,0x0b,0x40,0x70,0x69,0x74,0x63,0x68,0x69,0x69,0x3a,0x0c,0x40,0x76,0x6f,0x6c,0x75,0x6d,0x65,0x69,0x69))
    Wait(150)
    314(0,0)
    222()
    0()
   Else()
    ShowMessageFace("",0,0,2,3)
    ShowMessage("\\n<Succubus Innkeeper>Oh dear, you don't have enough money.")
    0()
   EndIf()
   0()
  IfPlayerPicksChoice(1,null)
   0()
  404()
  EndEventProcessing()
  0()



EVENT   87
 PAGE   1
  PictureDisplay(5,"80_maccubus_st11",0,0,0,0,100,100,0,0)
  PictureMove(5,null,0,0,0,0,100,100,255,0,30,true)
  ShowMessageFace("maccubus_fc1",1,0,2,1)
  ShowMessage("\\n<Maccubus>Oh, you're the traveling hero that helped me out during the raid, right?")
  ShowMessageFace("maccubus_fc1",1,0,2,2)
  ShowMessage("\\n<Maccubus>Hey, would you take me along on your adventure?\nIt's hard to make a living as a prostitute in a village full of succubi.")
  ShowMessageFace("maccubus_fc1",3,0,2,3)
  ShowMessage("\\n<Maccubus>Of course, I've got some good services to offer...\nHow about it?")
  If(4,203,0)
   ShowMessageFace("tatunoko_k_fc1",0,0,2,4)
   ShowMessage("\\n<Tatsuko>We always welcome people that do good!\nThe Navy is an upstanding organization!")
   ShowMessageFace("maccubus_fc1",3,0,2,5)
   ShowMessage("\\n<Maccubus>Fufu, you're so cute.\nI'm going to teach you some bad things. ♪")
   ShowMessageFace("tatunoko_k_fc1",2,0,2,6)
   ShowMessage("\\n<Tatsuko>I'm a marine! I don't do bad things!")
   0()
  EndIf()
  ShowChoices(strings("Invite Maccubus to the party","Turn her down"),2)
  IfPlayerPicksChoice(0,null)
   ShowMessageFace("maccubus_fc1",1,0,2,7)
   ShowMessage("\\n<Maccubus>Ufufu, thanks. ♪")
   ShowMessage("I'll show you my appreciation later. ♪")
   PictureClear(5)
   205(0,bytes(0x04,0x08,0x6f,0x3a,0x13,0x52,0x50,0x47,0x3a,0x3a,0x4d,0x6f,0x76,0x65,0x52,0x6f,0x75,0x74,0x65,0x09,0x3a,0x0c,0x40,0x72,0x65,0x70,0x65,0x61,0x74,0x46,0x3a,0x0f,0x40,0x73,0x6b,0x69,0x70,0x70,0x61,0x62,0x6c,0x65,0x46,0x3a,0x0a,0x40,0x77,0x61,0x69,0x74,0x54,0x3a,0x0a,0x40,0x6c,0x69,0x73,0x74,0x5b,0x09,0x6f,0x3a,0x15,0x52,0x50,0x47,0x3a,0x3a,0x4d,0x6f,0x76,0x65,0x43,0x6f,0x6d,0x6d,0x61,0x6e,0x64,0x07,0x3a,0x0a,0x40,0x63,0x6f,0x64,0x65,0x69,0x2a,0x3a,0x10,0x40,0x70,0x61,0x72,0x61,0x6d,0x65,0x74,0x65,0x72,0x73,0x5b,0x00,0x6f,0x3b,0x0a,0x07,0x3b,0x0b,0x69,0x0f,0x3b,0x0c,0x5b,0x00,0x6f,0x3b,0x0a,0x07,0x3b,0x0b,0x69,0x2c,0x3b,0x0c,0x5b,0x00,0x6f,0x3b,0x0a,0x07,0x3b,0x0b,0x69,0x00,0x3b,0x0c,0x5b,0x00))
   355("add_actor_ex(283)")
   249(bytes(0x04,0x08,0x6f,0x3a,0x0c,0x52,0x50,0x47,0x3a,0x3a,0x4d,0x45,0x08,0x3a,0x0a,0x40,0x6e,0x61,0x6d,0x65,0x49,0x22,0x0c,0x66,0x61,0x6e,0x66,0x61,0x6c,0x65,0x06,0x3a,0x06,0x45,0x54,0x3a,0x0b,0x40,0x70,0x69,0x74,0x63,0x68,0x69,0x69,0x3a,0x0c,0x40,0x76,0x6f,0x6c,0x75,0x6d,0x65,0x69,0x69))
   ShowMessageFace("",0,0,2,8)
   ShowMessage("Melissa has joined the party!")
   ChangeSelfSwitch("A",0)
   Wait(60)
   0()
  IfPlayerPicksChoice(1,null)
   PictureClear(5)
   EndEventProcessing()
   0()
  404()
  0()
 PAGE   2
  // condition: self-switch A is ON
  0()



EVENT   88
 PAGE   1
  ShowMessageFace("",0,0,2,1)
  ShowMessage("\\n<Soldier>Hauuu...")
  0()



EVENT   89
 PAGE   1
  ShowMessageFace("",0,0,2,1)
  ShowMessage("\\n<Traveling Swordsman>Can't take... any more...")
  0()



EVENT   90
 PAGE   1
  ShowMessageFace("",0,0,2,1)
  ShowMessage("\\n<Soldier>Ugh... I didn't stand a chance...")
  0()



EVENT   91
 PAGE   1
  ShowMessageFace("",0,0,2,1)
  ShowMessage("\\n<Swordsman>Such amazing technique...")
  0()



EVENT   92
 PAGE   1
  ShowMessageFace("",0,0,2,1)
  ShowMessage("\\n<Soldier>Ah, auuuu...")
  0()



EVENT   93
 PAGE   1
  ShowMessageFace("",0,0,2,1)
  ShowMessage("\\n<Thug>oh... ugh...")
  0()



EVENT   94
 PAGE   1
  ShowMessageFace("",0,0,2,1)
  ShowMessage("\\n<Burly Man>Aaah... Heaven...")
  0()



EVENT   95
 PAGE   1
  ShowMessageFace("",0,0,2,1)
  ShowMessage("\\n<Soldier>She emptied my balls...\nI'm so happy...")
  0()



EVENT   96
 PAGE   1
  ShowMessageFace("",0,0,2,1)
  ShowMessage("\\n<Soldier>Can't come... Any more... Hauuu...")
  0()



EVENT   97
 PAGE   1
  // condition: switch 2183 is ON
  If(0,2231,1)
   ChangeSwitch(2231,2231,0)
   ShowMessageFace("",0,0,2,1)
   ShowMessage("\\n<Youth D>ah... unngh...")
   250(bytes(0x04,0x08,0x6f,0x3a,0x0c,0x52,0x50,0x47,0x3a,0x3a,0x53,0x45,0x08,0x3a,0x0a,0x40,0x6e,0x61,0x6d,0x65,0x49,0x22,0x11,0x6d,0x6f,0x6e,0x5f,0x66,0x61,0x6e,0x66,0x61,0x6c,0x65,0x32,0x06,0x3a,0x06,0x45,0x54,0x3a,0x0b,0x40,0x70,0x69,0x74,0x63,0x68,0x69,0x69,0x3a,0x0c,0x40,0x76,0x6f,0x6c,0x75,0x6d,0x65,0x69,0x69))
   ShowMessageFace("",0,0,2,2)
   ShowMessage("One of the youths has been found!")
   ShowMessageFace("ruka_fc1",0,0,2,3)
   ShowMessage("\\n<Luka>Okay, we found Youth D!")
   ShowMessageFace("",0,0,2,4)
   ShowMessage("\\n<Youth D>I can't move. I'm totally dry...")
   ShowMessageFace("ruka_fc1",0,0,2,5)
   ShowMessage("\\n<Luka>Nothing we can do about that...")
   ShowMessageFace("",0,0,2,6)
   ShowMessage("\\n<Youth D>ah... unngh...")
   EndEventProcessing()
   0()
  Else()
   ShowMessageFace("",0,0,2,7)
   ShowMessage("\\n<Youth D>ah... unngh...")
   EndEventProcessing()
   0()
  EndIf()
  0()



EVENT   98
 PAGE   1
  ShowMessageFace("",0,0,2,1)
  ShowMessage("\\n<Youth>I can see Heaven... Haaaa...")
  0()



EVENT   99
 PAGE   1
  ShowMessageFace("",0,0,2,1)
  ShowMessage("\\n<Man>T-Too intense...")
  0()



EVENT   100
 PAGE   1
  ShowMessageFace("",0,0,2,1)
  ShowMessage("\\n<Black Mage>B-But I'm a woman...")
  ShowMessageFace("",0,0,2,2)
  ShowMessage("\\n<Succubus>Ahaha, what a sensitive girl... ♪")
  0()



EVENT   101
 PAGE   1
  ShowMessageFace("",0,0,2,1)
  ShowMessage("\\n<Succubus>Ufufufu... ♪")
  ShowMessageFace("",0,0,2,2)
  ShowMessage("\\n<Swordsman>Aaah... N-No way...")
  0()



EVENT   102
 PAGE   1
  ShowMessageFace("",0,0,2,1)
  ShowMessage("\\n<Man>I'm floating to Heaven...")
  ShowMessageFace("",0,0,2,2)
  ShowMessage("\\n<Succubus>You can come over and over... ♪")
  0()



EVENT   103
 PAGE   1
  ShowMessageFace("",0,0,2,1)
  ShowMessage("\\n<Soldier>Oooh... She's draining me...")
  ShowMessageFace("",0,0,2,2)
  ShowMessage("\\n<Succubus>Did you think I'd give you a break? Ufufu... ♪")
  0()



EVENT   104
 PAGE   1
  ShowMessageFace("",0,0,2,1)
  ShowMessage("\\n<Soldier>Oooh... She's draining me...")
  ShowMessageFace("",0,0,2,2)
  ShowMessage("\\n<Succubus>Did you think I'd give you a break? Ufufu... ♪")
  0()



EVENT   105
 PAGE   1
  ShowMessageFace("",0,0,2,1)
  ShowMessage("\\n<Black Mage>B-But I'm a woman...")
  ShowMessageFace("",0,0,2,2)
  ShowMessage("\\n<Succubus>Ahaha, what a sensitive girl... ♪")
  0()



EVENT   106
 PAGE   1
  ShowMessageFace("",0,0,2,1)
  ShowMessage("\\n<Man>I'm floating to Heaven...")
  ShowMessageFace("",0,0,2,2)
  ShowMessage("\\n<Succubus>You can come over and over... ♪")
  0()



EVENT   107
 PAGE   1
  ShowMessageFace("",0,0,2,1)
  ShowMessage("\\n<Succubus>Ufufufu... ♪")
  ShowMessageFace("",0,0,2,2)
  ShowMessage("\\n<Swordsman>Aaah... N-No way...")
  0()



EVENT   108
 PAGE   1
  ShowMessageFace("",0,0,2,1)
  ShowMessage("\\n<Succubus>Please spend the night here, sir. ♪\nThe fee comes with a few free perks. ♪")
  If(0,6,0)
   ShowMessageFace("sonia_fc1",5,0,2,2)
   ShowMessage("\\n<Sonya>We decline.")
   0()
  EndIf()
  0()



EVENT   109
 PAGE   1
  ShowMessageFace("",0,0,2,1)
  ShowMessage("\\n<Succubus>He looks so strong, but I guess he's inexperienced. Oh, sorry, the blacksmith is closed for a while.")
  0()



EVENT   110
 PAGE   1
  ShowMessageFace("",0,0,2,1)
  ShowMessage("\\n<Thug>Can't lift... my body...")
  0()



EVENT   111
 PAGE   1
  ShowMessageFace("",0,0,2,1)
  ShowMessage("\\n<Man>So tired...")
  0()



EVENT   112
 PAGE   1
  ShowMessageFace("",0,0,2,1)
  ShowMessage("\\n<Traveling Warrior>Best. Inn. Ever.")
  0()



EVENT   113
 PAGE   1
  ShowMessageFace("",0,0,2,1)
  ShowMessage("\\n<Soldier>Aauuu...")
  0()



EVENT   114
 PAGE   1
  ShowMessageFace("",0,0,2,1)
  ShowMessage("\\n<Succubus>I supply the succubus bustiers sold here.\nHow? That's a secret! ♪")
  0()



EVENT   115
 PAGE   1
  ShowMessageFace("",0,0,2,1)
  ShowMessage("\\n<Succubus>I'm as full as you'd expect. ♪")
  0()



EVENT   116
 PAGE   1
  ShowMessageFace("",0,0,2,1)
  ShowMessage("\\n<Succubus>Having a drink after exercise is the best. ♪")
  0()



EVENT   117
 PAGE   1
  ShowMessageFace("",0,0,2,1)
  ShowMessage("\\n<Succubus>I need to buy lots of Boost Drinks.\nIn order to get a boost, of course. ♪")
  0()



EVENT   118
 PAGE   1
  ShowMessageFace("",0,0,2,1)
  ShowMessage("\\n<Knight>I need De-Love Potions. So many De-Love Potions...")
  0()



EVENT   119
 PAGE   1
  ShowMessageFace("",0,0,2,1)
  ShowMessage("\\n<Succubus>As you'd expect from a household of four succubi, our meals pile up...")
  0()



EVENT   120
 PAGE   1
  ShowMessageFace("",0,0,2,1)
  ShowMessage("\\n<Succubus>The men look so happy, so I don't think it's a big deal to leave them lying around after meals. ♪")
  0()



EVENT   121
 PAGE   1
  ShowMessageFace("",0,0,2,1)
  ShowMessage("\\n<Succubus>Everyone here is such a sloppy eater...\nTaking them home afterwards is a major pain.")
  0()



EVENT   122
 PAGE   1
  ShowMessageFace("",0,0,2,1)
  ShowMessage("\\n<Succubus>Don't get the wrong idea. We only suck people who have given affirmative consent.")
  0()



EVENT   123
 PAGE   1
  ShowMessageFace("",0,0,2,1)
  ShowMessage("\\n<Thug>Hauuu...")
  0()



EVENT   124
 PAGE   1
  ShowMessageFace("",0,0,2,1)
  ShowMessage("\\n<Thug>Hauuu...")
  0()



EVENT   125
 PAGE   1
  ShowMessageFace("",0,0,2,1)
  ShowMessage("\\n<Thug>Hauuu...")
  0()



EVENT   126
 PAGE   1
  ShowMessageFace("",0,0,2,1)
  ShowMessage("\\n<Thug>Hauuu...")
  0()



EVENT   127
 PAGE   1
  ShowMessageFace("",0,0,2,1)
  ShowMessage("\\n<Thug>Hauuu...")
  0()



EVENT   128
 PAGE   1
  ShowMessageFace("",0,0,2,1)
  ShowMessage("\\n<Old Man>Uaaaa...")
  0()



EVENT   129
 PAGE   1
  ShowMessageFace("",0,0,2,1)
  ShowMessage("\\n<Thug>Hauuu...")
  0()



EVENT   130
 PAGE   1
  ShowMessageFace("",0,0,2,1)
  ShowMessage("\\n<Thug>Hauuu...")
  0()



EVENT   131
 PAGE   1
  ShowMessageFace("",0,0,2,1)
  ShowMessage("\\n<Thug>Hauuu...")
  0()



EVENT   132
 PAGE   1
  ShowMessageFace("",0,0,2,1)
  ShowMessage("\\n<Thug>Hauuu...")
  0()



EVENT   133
 PAGE   1
  ShowMessageFace("",0,0,2,1)
  ShowMessage("\\n<Thug>Hauuu...")
  0()



EVENT   134
 PAGE   1
  ShowMessageFace("",0,0,2,1)
  ShowMessage("\\n<Thug>Hauuu...")
  0()



EVENT   135
 PAGE   1
  ShowMessageFace("",0,0,2,1)
  ShowMessage("\\n<Youth>Aauuu...")
  0()



EVENT   136
 PAGE   1
  250(bytes(0x04,0x08,0x6f,0x3a,0x0c,0x52,0x50,0x47,0x3a,0x3a,0x53,0x45,0x08,0x3a,0x0a,0x40,0x6e,0x61,0x6d,0x65,0x49,0x22,0x0a,0x49,0x74,0x65,0x6d,0x31,0x06,0x3a,0x06,0x45,0x54,0x3a,0x0b,0x40,0x70,0x69,0x74,0x63,0x68,0x69,0x69,0x3a,0x0c,0x40,0x76,0x6f,0x6c,0x75,0x6d,0x65,0x69,0x55))
  ChangeSelfSwitch("A",0)
  ChangeInventory_Item(32,0,0,1)
  0()
 PAGE   2
  // condition: self-switch A is ON
  0()



EVENT   137
 PAGE   1
  250(bytes(0x04,0x08,0x6f,0x3a,0x0c,0x52,0x50,0x47,0x3a,0x3a,0x53,0x45,0x08,0x3a,0x0a,0x40,0x6e,0x61,0x6d,0x65,0x49,0x22,0x0a,0x49,0x74,0x65,0x6d,0x31,0x06,0x3a,0x06,0x45,0x54,0x3a,0x0b,0x40,0x70,0x69,0x74,0x63,0x68,0x69,0x69,0x3a,0x0c,0x40,0x76,0x6f,0x6c,0x75,0x6d,0x65,0x69,0x55))
  ChangeSelfSwitch("A",0)
  ChangeInventory_Item(222,0,0,1)
  0()
 PAGE   2
  // condition: self-switch A is ON
  0()



EVENT   138
 PAGE   1
  250(bytes(0x04,0x08,0x6f,0x3a,0x0c,0x52,0x50,0x47,0x3a,0x3a,0x53,0x45,0x08,0x3a,0x0a,0x40,0x6e,0x61,0x6d,0x65,0x49,0x22,0x0a,0x49,0x74,0x65,0x6d,0x31,0x06,0x3a,0x06,0x45,0x54,0x3a,0x0b,0x40,0x70,0x69,0x74,0x63,0x68,0x69,0x69,0x3a,0x0c,0x40,0x76,0x6f,0x6c,0x75,0x6d,0x65,0x69,0x55))
  ChangeSelfSwitch("A",0)
  ChangeInventory_Item(342,0,0,1)
  0()
 PAGE   2
  // condition: self-switch A is ON
  0()



EVENT   139
 PAGE   1
  250(bytes(0x04,0x08,0x6f,0x3a,0x0c,0x52,0x50,0x47,0x3a,0x3a,0x53,0x45,0x08,0x3a,0x0a,0x40,0x6e,0x61,0x6d,0x65,0x49,0x22,0x0a,0x49,0x74,0x65,0x6d,0x31,0x06,0x3a,0x06,0x45,0x54,0x3a,0x0b,0x40,0x70,0x69,0x74,0x63,0x68,0x69,0x69,0x3a,0x0c,0x40,0x76,0x6f,0x6c,0x75,0x6d,0x65,0x69,0x55))
  ChangeSelfSwitch("A",0)
  ChangeInventory_Item(2,0,0,1)
  0()
 PAGE   2
  // condition: self-switch A is ON
  0()



EVENT   140
 PAGE   1
  250(bytes(0x04,0x08,0x6f,0x3a,0x0c,0x52,0x50,0x47,0x3a,0x3a,0x53,0x45,0x08,0x3a,0x0a,0x40,0x6e,0x61,0x6d,0x65,0x49,0x22,0x0a,0x49,0x74,0x65,0x6d,0x31,0x06,0x3a,0x06,0x45,0x54,0x3a,0x0b,0x40,0x70,0x69,0x74,0x63,0x68,0x69,0x69,0x3a,0x0c,0x40,0x76,0x6f,0x6c,0x75,0x6d,0x65,0x69,0x55))
  ChangeSelfSwitch("A",0)
  ChangeInventory_Item(319,0,0,1)
  0()
 PAGE   2
  // condition: self-switch A is ON
  0()



EVENT   141
 PAGE   1
  250(bytes(0x04,0x08,0x6f,0x3a,0x0c,0x52,0x50,0x47,0x3a,0x3a,0x53,0x45,0x08,0x3a,0x0a,0x40,0x6e,0x61,0x6d,0x65,0x49,0x22,0x0a,0x49,0x74,0x65,0x6d,0x31,0x06,0x3a,0x06,0x45,0x54,0x3a,0x0b,0x40,0x70,0x69,0x74,0x63,0x68,0x69,0x69,0x3a,0x0c,0x40,0x76,0x6f,0x6c,0x75,0x6d,0x65,0x69,0x55))
  ChangeSelfSwitch("A",0)
  ChangeInventory_Item(319,0,0,1)
  0()
 PAGE   2
  // condition: self-switch A is ON
  0()



EVENT   142
 PAGE   1
  250(bytes(0x04,0x08,0x6f,0x3a,0x0c,0x52,0x50,0x47,0x3a,0x3a,0x53,0x45,0x08,0x3a,0x0a,0x40,0x6e,0x61,0x6d,0x65,0x49,0x22,0x0a,0x49,0x74,0x65,0x6d,0x31,0x06,0x3a,0x06,0x45,0x54,0x3a,0x0b,0x40,0x70,0x69,0x74,0x63,0x68,0x69,0x69,0x3a,0x0c,0x40,0x76,0x6f,0x6c,0x75,0x6d,0x65,0x69,0x55))
  ChangeSelfSwitch("A",0)
  ChangeInventory_Item(319,0,0,1)
  0()
 PAGE   2
  // condition: self-switch A is ON
  0()



EVENT   143
 PAGE   1
  250(bytes(0x04,0x08,0x6f,0x3a,0x0c,0x52,0x50,0x47,0x3a,0x3a,0x53,0x45,0x08,0x3a,0x0a,0x40,0x6e,0x61,0x6d,0x65,0x49,0x22,0x0a,0x49,0x74,0x65,0x6d,0x31,0x06,0x3a,0x06,0x45,0x54,0x3a,0x0b,0x40,0x70,0x69,0x74,0x63,0x68,0x69,0x69,0x3a,0x0c,0x40,0x76,0x6f,0x6c,0x75,0x6d,0x65,0x69,0x55))
  ChangeSelfSwitch("A",0)
  ChangeInventory_Item(319,0,0,1)
  0()
 PAGE   2
  // condition: self-switch A is ON
  0()



EVENT   144
 PAGE   1
  250(bytes(0x04,0x08,0x6f,0x3a,0x0c,0x52,0x50,0x47,0x3a,0x3a,0x53,0x45,0x08,0x3a,0x0a,0x40,0x6e,0x61,0x6d,0x65,0x49,0x22,0x0a,0x49,0x74,0x65,0x6d,0x31,0x06,0x3a,0x06,0x45,0x54,0x3a,0x0b,0x40,0x70,0x69,0x74,0x63,0x68,0x69,0x69,0x3a,0x0c,0x40,0x76,0x6f,0x6c,0x75,0x6d,0x65,0x69,0x55))
  ChangeSelfSwitch("A",0)
  ChangeInventory_Item(319,0,0,1)
  0()
 PAGE   2
  // condition: self-switch A is ON
  0()



EVENT   145
 PAGE   1
  250(bytes(0x04,0x08,0x6f,0x3a,0x0c,0x52,0x50,0x47,0x3a,0x3a,0x53,0x45,0x08,0x3a,0x0a,0x40,0x6e,0x61,0x6d,0x65,0x49,0x22,0x0a,0x49,0x74,0x65,0x6d,0x31,0x06,0x3a,0x06,0x45,0x54,0x3a,0x0b,0x40,0x70,0x69,0x74,0x63,0x68,0x69,0x69,0x3a,0x0c,0x40,0x76,0x6f,0x6c,0x75,0x6d,0x65,0x69,0x55))
  ChangeSelfSwitch("A",0)
  ChangeInventory_Item(319,0,0,1)
  0()
 PAGE   2
  // condition: self-switch A is ON
  0()



EVENT   146
 PAGE   1
  250(bytes(0x04,0x08,0x6f,0x3a,0x0c,0x52,0x50,0x47,0x3a,0x3a,0x53,0x45,0x08,0x3a,0x0a,0x40,0x6e,0x61,0x6d,0x65,0x49,0x22,0x0a,0x49,0x74,0x65,0x6d,0x31,0x06,0x3a,0x06,0x45,0x54,0x3a,0x0b,0x40,0x70,0x69,0x74,0x63,0x68,0x69,0x69,0x3a,0x0c,0x40,0x76,0x6f,0x6c,0x75,0x6d,0x65,0x69,0x55))
  ChangeSelfSwitch("A",0)
  ChangeInventory_Item(319,0,0,1)
  0()
 PAGE   2
  // condition: self-switch A is ON
  0()



EVENT   147
 PAGE   1
  250(bytes(0x04,0x08,0x6f,0x3a,0x0c,0x52,0x50,0x47,0x3a,0x3a,0x53,0x45,0x08,0x3a,0x0a,0x40,0x6e,0x61,0x6d,0x65,0x49,0x22,0x0a,0x49,0x74,0x65,0x6d,0x31,0x06,0x3a,0x06,0x45,0x54,0x3a,0x0b,0x40,0x70,0x69,0x74,0x63,0x68,0x69,0x69,0x3a,0x0c,0x40,0x76,0x6f,0x6c,0x75,0x6d,0x65,0x69,0x55))
  ChangeSelfSwitch("A",0)
  ChangeInventory_Item(319,0,0,1)
  0()
 PAGE   2
  // condition: self-switch A is ON
  0()



EVENT   148
 PAGE   1
  250(bytes(0x04,0x08,0x6f,0x3a,0x0c,0x52,0x50,0x47,0x3a,0x3a,0x53,0x45,0x08,0x3a,0x0a,0x40,0x6e,0x61,0x6d,0x65,0x49,0x22,0x0a,0x48,0x65,0x61,0x6c,0x37,0x06,0x3a,0x06,0x45,0x54,0x3a,0x0b,0x40,0x70,0x69,0x74,0x63,0x68,0x69,0x69,0x3a,0x0c,0x40,0x76,0x6f,0x6c,0x75,0x6d,0x65,0x69,0x55))
  224(bytes(0x04,0x08,0x75,0x3a,0x0a,0x43,0x6f,0x6c,0x6f,0x72,0x25,0x00,0x00,0x00,0x00,0x00,0xe0,0x6f,0x40,0x00,0x00,0x00,0x00,0x00,0xe0,0x6f,0x40,0x00,0x00,0x00,0x00,0x00,0xe0,0x6f,0x40,0x00,0x00,0x00,0x00,0x00,0xe0,0x6f,0x40),30,true)
  314(0,0)
  ShowMessageFace("",0,0,2,1)
  ShowMessage("The party's HP and MP have been fully restored!")
  0()
