


EVENT   2
 PAGE   1
  281(1)
  250(bytes(0x04,0x08,0x6f,0x3a,0x0c,0x52,0x50,0x47,0x3a,0x3a,0x53,0x45,0x08,0x3a,0x0a,0x40,0x6e,0x61,0x6d,0x65,0x49,0x22,0x09,0x4d,0x6f,0x76,0x65,0x06,0x3a,0x06,0x45,0x54,0x3a,0x0b,0x40,0x70,0x69,0x74,0x63,0x68,0x69,0x69,0x3a,0x0c,0x40,0x76,0x6f,0x6c,0x75,0x6d,0x65,0x69,0x55))
  TeleportPlayer(0,462,19,54,0,0)
  0()



EVENT   3
 PAGE   1
  281(1)
  250(bytes(0x04,0x08,0x6f,0x3a,0x0c,0x52,0x50,0x47,0x3a,0x3a,0x53,0x45,0x08,0x3a,0x0a,0x40,0x6e,0x61,0x6d,0x65,0x49,0x22,0x09,0x4d,0x6f,0x76,0x65,0x06,0x3a,0x06,0x45,0x54,0x3a,0x0b,0x40,0x70,0x69,0x74,0x63,0x68,0x69,0x69,0x3a,0x0c,0x40,0x76,0x6f,0x6c,0x75,0x6d,0x65,0x69,0x55))
  TeleportPlayer(0,462,20,54,0,0)
  0()



EVENT   4
 PAGE   1
  ShowMessageFace("nuruko_fc1",0,0,2,1)
  ShowMessage("\\n<Nuruko>きゅー！　きゅー！")
  ShowMessageFace("sonia_fc1",0,0,2,2)
  ShowMessage("\\n<Sonya>一緒についてきてくれるの？")
  ShowMessage("それじゃあ、行こっか。")
  221()
  Wait(60)
  TeleportPlayer(0,748,1,0,0,2)
  222()
  0()



EVENT   5
 PAGE   1
  // condition: switch 6 is ON
  ChangeSelfSwitch("A",0)
  ShowMessageFace("",0,0,2,1)
  ShowMessage("奥の方から、ゴソゴソと物音がする……")
  ShowMessageFace("sonia_fc3",7,0,2,2)
  ShowMessage("\\n<Sonya>奥に何かいるみたい……")
  If(4,62,0)
   ShowMessageFace("gob_fc1",3,0,2,3)
   ShowMessage("\\n<Gob>で、でてこい……！")
   ShowMessage("こわくないぞ！　やっつけちゃうぞ！")
   0()
  EndIf()
  0()
 PAGE   2
  // condition: self-switch A is ON
  0()



EVENT   6
 PAGE   1
  0()



EVENT   7
 PAGE   1
  0()



EVENT   8
 PAGE   1
  0()
